aece1,a,Planlama ve Raporlama UzmanÄ±,sahaexpotestuser1989@yopmail.com,EH,AOUSSERD,TR,TRUE,FALSE,FALSE
aece2,a,Planlama ve Raporlama UzmanÄ±,sahaexpotestuser1990@yopmail.com,EH,AOUSSERD,TR,TRUE,FALSE,FALSE
aece3,a,Planlama ve Raporlama UzmanÄ±,sahaexpotestuser1991@yopmail.com,EH,AOUSSERD,TR,TRUE,FALSE,FALSE
aece4,a,Planlama ve Raporlama UzmanÄ±,sahaexpotestuser1992@yopmail.com,EH,AOUSSERD,TR,TRUE,FALSE,FALSE